exercise/exercise7/FSM/dump.vcd
$version Generated by VerilatedVcd $end
$timescale 1s $end

 $scope module TOP $end
  $var wire  1 \ clk $end
  $var wire  1 ] in $end
  $var wire  1 _ out $end
  $var wire  1 ^ reset $end
  $scope module top $end
   $var wire  4 f S0 [3:0] $end
   $var wire  4 g S1 [3:0] $end
   $var wire  4 h S2 [3:0] $end
   $var wire  4 i S3 [3:0] $end
   $var wire  4 j S4 [3:0] $end
   $var wire  4 k S5 [3:0] $end
   $var wire  4 l S6 [3:0] $end
   $var wire  4 m S7 [3:0] $end
   $var wire  4 n S8 [3:0] $end
   $var wire  1 \ clk $end
   $var wire  1 ] in $end
   $var wire  1 _ out $end
   $var wire  1 ^ reset $end
   $var wire  4 ` state_din [3:0] $end
   $var wire  4 Y state_dout [3:0] $end
   $var wire  1 o state_wen $end
   $scope module outMux $end
    $var wire 32 r DATA_LEN [31:0] $end
    $var wire 32 q KEY_LEN [31:0] $end
    $var wire 32 p NR_KEY [31:0] $end
    $var wire  1 s default_out [0:0] $end
    $var wire  4 Y key [3:0] $end
    $var wire 45 t lut [44:0] $end
    $var wire  1 _ out [0:0] $end
    $scope module i0 $end
     $var wire 32 r DATA_LEN [31:0] $end
     $var wire 32 r HAS_DEFAULT [31:0] $end
     $var wire 32 q KEY_LEN [31:0] $end
     $var wire 32 p NR_KEY [31:0] $end
     $var wire 32 v PAIR_LEN [31:0] $end
     $var wire  1 5 data_list[0] [0:0] $end
     $var wire  1 6 data_list[1] [0:0] $end
     $var wire  1 7 data_list[2] [0:0] $end
     $var wire  1 8 data_list[3] [0:0] $end
     $var wire  1 9 data_list[4] [0:0] $end
     $var wire  1 : data_list[5] [0:0] $end
     $var wire  1 ; data_list[6] [0:0] $end
     $var wire  1 < data_list[7] [0:0] $end
     $var wire  1 = data_list[8] [0:0] $end
     $var wire  1 s default_out [0:0] $end
     $var wire  1 [ hit $end
     $var wire 32 w i [31:0] $end
     $var wire  4 Y key [3:0] $end
     $var wire  4 , key_list[0] [3:0] $end
     $var wire  4 - key_list[1] [3:0] $end
     $var wire  4 . key_list[2] [3:0] $end
     $var wire  4 / key_list[3] [3:0] $end
     $var wire  4 0 key_list[4] [3:0] $end
     $var wire  4 1 key_list[5] [3:0] $end
     $var wire  4 2 key_list[6] [3:0] $end
     $var wire  4 3 key_list[7] [3:0] $end
     $var wire  4 4 key_list[8] [3:0] $end
     $var wire 45 t lut [44:0] $end
     $var wire  1 Z lut_out [0:0] $end
     $var wire  1 _ out [0:0] $end
     $var wire  5 # pair_list[0] [4:0] $end
     $var wire  5 $ pair_list[1] [4:0] $end
     $var wire  5 % pair_list[2] [4:0] $end
     $var wire  5 & pair_list[3] [4:0] $end
     $var wire  5 ' pair_list[4] [4:0] $end
     $var wire  5 ( pair_list[5] [4:0] $end
     $var wire  5 ) pair_list[6] [4:0] $end
     $var wire  5 * pair_list[7] [4:0] $end
     $var wire  5 + pair_list[8] [4:0] $end
    $upscope $end
   $upscope $end
   $scope module state $end
    $var wire 32 x INIT [31:0] $end
    $var wire 32 q WIDTH [31:0] $end
    $var wire  1 \ clk $end
    $var wire  4 ` d [3:0] $end
    $var wire  4 Y q [3:0] $end
    $var wire  1 ^ reset $end
    $var wire  1 o wen $end
   $upscope $end
   $scope module stateMux $end
    $var wire 32 q DATA_LEN [31:0] $end
    $var wire 32 q KEY_LEN [31:0] $end
    $var wire 32 p NR_KEY [31:0] $end
    $var wire  4 f default_out [3:0] $end
    $var wire  4 Y key [3:0] $end
    $var wire 72 a lut [71:0] $end
    $var wire  4 ` out [3:0] $end
    $scope module i0 $end
     $var wire 32 q DATA_LEN [31:0] $end
     $var wire 32 r HAS_DEFAULT [31:0] $end
     $var wire 32 q KEY_LEN [31:0] $end
     $var wire 32 p NR_KEY [31:0] $end
     $var wire 32 y PAIR_LEN [31:0] $end
     $var wire  4 P data_list[0] [3:0] $end
     $var wire  4 Q data_list[1] [3:0] $end
     $var wire  4 R data_list[2] [3:0] $end
     $var wire  4 S data_list[3] [3:0] $end
     $var wire  4 T data_list[4] [3:0] $end
     $var wire  4 U data_list[5] [3:0] $end
     $var wire  4 V data_list[6] [3:0] $end
     $var wire  4 W data_list[7] [3:0] $end
     $var wire  4 X data_list[8] [3:0] $end
     $var wire  4 f default_out [3:0] $end
     $var wire  1 e hit $end
     $var wire 32 w i [31:0] $end
     $var wire  4 Y key [3:0] $end
     $var wire  4 > key_list[0] [3:0] $end
     $var wire  4 ? key_list[1] [3:0] $end
     $var wire  4 @ key_list[2] [3:0] $end
     $var wire  4 A key_list[3] [3:0] $end
     $var wire  4 B key_list[4] [3:0] $end
     $var wire  4 C key_list[5] [3:0] $end
     $var wire  4 D key_list[6] [3:0] $end
     $var wire  4 E key_list[7] [3:0] $end
     $var wire  4 F key_list[8] [3:0] $end
     $var wire 72 a lut [71:0] $end
     $var wire  4 d lut_out [3:0] $end
     $var wire  4 ` out [3:0] $end
     $var wire  8 G pair_list[0] [7:0] $end
     $var wire  8 H pair_list[1] [7:0] $end
     $var wire  8 I pair_list[2] [7:0] $end
     $var wire  8 J pair_list[3] [7:0] $end
     $var wire  8 K pair_list[4] [7:0] $end
     $var wire  8 L pair_list[5] [7:0] $end
     $var wire  8 M pair_list[6] [7:0] $end
     $var wire  8 N pair_list[7] [7:0] $end
     $var wire  8 O pair_list[8] [7:0] $end
    $upscope $end
   $upscope $end
  $upscope $end
 $upscope $end
$enddefinitions $end


#1
b10001 #
b01110 $
b01100 %
b01010 &
b01001 '
b00110 (
b00100 )
b00010 *
b00000 +
b1000 ,
b0111 -
b0110 .
b0101 /
b0100 0
b0011 1
b0010 2
b0001 3
b0000 4
15
06
07
08
19
0:
0;
0<
0=
b1000 >
b0111 ?
b0110 @
b0101 A
b0100 B
b0011 C
b0010 D
b0001 E
b0000 F
b10000001 G
b01110001 H
b01100001 I
b01010001 J
b01000100 K
b00110100 L
b00100011 M
b00010010 N
b00000001 O
b0001 P
b0001 Q
b0001 R
b0001 S
b0100 T
b0100 U
b0011 V
b0010 W
b0001 X
b0000 Y
0Z
1[
0\
0]
0^
0_
b0001 `
b000000010001001000100011001101000100010001010001011000010111000110000001 a
b0001 d
1e
b0000 f
b0001 g
b0010 h
b0011 i
b0100 j
b0101 k
b0110 l
b0111 m
b1000 n
1o
b00000000000000000000000000001001 p
b00000000000000000000000000000100 q
b00000000000000000000000000000001 r
0s
b000000001000100001100100101010011000111010001 t
b00000000000000000000000000000101 v
b00000000000000000000000000001001 w
b00000000000000000000000000000000 x
b00000000000000000000000000001000 y
#2
b10001000 G
b01111000 H
b01100111 I
b01010110 J
b01000101 K
b00110101 L
b00100101 M
b00010101 N
b00000101 O
b1000 P
b1000 Q
b0111 R
b0110 S
b0101 T
b0101 U
b0101 V
b0101 W
b0101 X
b0101 Y
1\
1]
b0110 `
b000001010001010100100101001101010100010101010110011001110111100010001000 a
b0110 d
#3
b10000001 G
b01110001 H
b01100001 I
b01010001 J
b01000100 K
b00110100 L
b00100011 M
b00010010 N
b00000001 O
b0001 P
b0001 Q
b0001 R
b0001 S
b0100 T
b0100 U
b0011 V
b0010 W
b0001 X
0\
0]
b0001 `
b000000010001001000100011001101000100010001010001011000010111000110000001 a
b0001 d
#4
b0001 Y
1\
b0010 `
b0010 d
#5
0\
#6
b0010 Y
1\
b0011 `
b0011 d
#7
0\
#8
b0011 Y
1\
b0100 `
b0100 d
#9
0\
#10
b0100 Y
1Z
1\
1_
#11
0\
#12
b10001000 G
b01111000 H
b01100111 I
b01010110 J
b01000101 K
b00110101 L
b00100101 M
b00010101 N
b00000101 O
b1000 P
b1000 Q
b0111 R
b0110 S
b0101 T
b0101 U
b0101 V
b0101 W
b0101 X
b0101 Y
0Z
1\
1]
0_
b0110 `
b000001010001010100100101001101010100010101010110011001110111100010001000 a
b0110 d
#13
0\
#14
b0110 Y
1\
b0111 `
b0111 d
#15
b0000 Y
0\
1^
b0101 `
b0101 d
